<?xml version="1.0" encoding="UTF-8"?>
<testsuite xmlns:xsi="http://www.w3.org/2001/XMLSchema-instance" xsi:noNamespaceSchemaLocation="https://maven.apache.org/surefire/maven-surefire-plugin/xsd/surefire-test-report.xsd" name="FirstPetXmlExtendedTest" time="1.887" tests="1" errors="1" skipped="0" failures="0">
  <properties>
    <property name="gopherProxySet" value="false"/>
    <property name="awt.toolkit" value="sun.lwawt.macosx.LWCToolkit"/>
    <property name="file.encoding.pkg" value="sun.io"/>
    <property name="java.specification.version" value="1.8"/>
    <property name="sun.cpu.isalist" value=""/>
    <property name="sun.jnu.encoding" value="UTF-8"/>
    <property name="java.class.path" value="/Users/vsxxsep/Projects/FuseGW/CamelsGateway/target/test-classes:/Users/vsxxsep/Projects/FuseGW/CamelsGateway/target/classes:/var/root/.m2/repository/org/ow2/asm/asm-all/5.0.4.redhat-18/asm-all-5.0.4.redhat-18.jar:/var/root/.m2/repository/org/apache/camel/camel-core/2.17.0.redhat-630310/camel-core-2.17.0.redhat-630310.jar:/var/root/.m2/repository/com/sun/xml/bind/jaxb-core/2.2.11/jaxb-core-2.2.11.jar:/var/root/.m2/repository/com/sun/xml/bind/jaxb-impl/2.2.11.redhat-2/jaxb-impl-2.2.11.redhat-2.jar:/var/root/.m2/repository/org/apache/camel/camel-blueprint/2.17.0.redhat-630283/camel-blueprint-2.17.0.redhat-630283.jar:/var/root/.m2/repository/org/apache/camel/camel-core-xml/2.17.0.redhat-630310/camel-core-xml-2.17.0.redhat-630310.jar:/var/root/.m2/repository/org/apache/camel/camel-core-osgi/2.17.0.redhat-630310/camel-core-osgi-2.17.0.redhat-630310.jar:/var/root/.m2/repository/org/apache/camel/camel-test-spring/2.17.0.redhat-630310/camel-test-spring-2.17.0.redhat-630310.jar:/var/root/.m2/repository/org/apache/camel/camel-spring/2.17.0.redhat-630310/camel-spring-2.17.0.redhat-630310.jar:/var/root/.m2/repository/org/springframework/spring-core/3.2.18.RELEASE/spring-core-3.2.18.RELEASE.jar:/var/root/.m2/repository/org/springframework/spring-aop/3.2.18.RELEASE/spring-aop-3.2.18.RELEASE.jar:/var/root/.m2/repository/aopalliance/aopalliance/1.0/aopalliance-1.0.jar:/var/root/.m2/repository/org/springframework/spring-expression/3.2.18.RELEASE/spring-expression-3.2.18.RELEASE.jar:/var/root/.m2/repository/org/springframework/spring-test/3.2.18.RELEASE/spring-test-3.2.18.RELEASE.jar:/var/root/.m2/repository/org/apache/camel/camel-test-blueprint/2.17.0.redhat-630310/camel-test-blueprint-2.17.0.redhat-630310.jar:/var/root/.m2/repository/org/apache/camel/camel-core/2.17.0.redhat-630310/camel-core-2.17.0.redhat-630310-tests.jar:/var/root/.m2/repository/org/apache/aries/proxy/org.apache.aries.proxy.api/1.0.1/org.apache.aries.proxy.api-1.0.1.jar:/var/root/.m2/repository/org/apache/aries/proxy/org.apache.aries.proxy.impl/1.0.4/org.apache.aries.proxy.impl-1.0.4.jar:/var/root/.m2/repository/org/apache/aries/blueprint/org.apache.aries.blueprint.api/1.0.1/org.apache.aries.blueprint.api-1.0.1.jar:/var/root/.m2/repository/org/apache/aries/blueprint/org.apache.aries.blueprint.core/1.8.0/org.apache.aries.blueprint.core-1.8.0.jar:/var/root/.m2/repository/org/apache/aries/quiesce/org.apache.aries.quiesce.api/1.0.0/org.apache.aries.quiesce.api-1.0.0.jar:/var/root/.m2/repository/org/apache/aries/blueprint/org.apache.aries.blueprint.cm/1.0.6/org.apache.aries.blueprint.cm-1.0.6.jar:/var/root/.m2/repository/org/apache/aries/org.apache.aries.util/1.1.3/org.apache.aries.util-1.1.3.jar:/var/root/.m2/repository/org/apache/felix/org.apache.felix.connect/0.1.0/org.apache.felix.connect-0.1.0.jar:/var/root/.m2/repository/org/ops4j/pax/swissbox/pax-swissbox-tinybundles/1.3.2/pax-swissbox-tinybundles-1.3.2.jar:/var/root/.m2/repository/org/ops4j/base/ops4j-base-lang/1.5.0/ops4j-base-lang-1.5.0.jar:/var/root/.m2/repository/org/ops4j/base/ops4j-base-io/1.5.0/ops4j-base-io-1.5.0.jar:/var/root/.m2/repository/org/ops4j/base/ops4j-base-monitors/1.5.0/ops4j-base-monitors-1.5.0.jar:/var/root/.m2/repository/org/ops4j/base/ops4j-base-store/1.5.0/ops4j-base-store-1.5.0.jar:/var/root/.m2/repository/org/ops4j/pax/swissbox/pax-swissbox-bnd/1.8.2/pax-swissbox-bnd-1.8.2.jar:/var/root/.m2/repository/biz/aQute/bnd/bndlib/2.4.0/bndlib-2.4.0.jar:/var/root/.m2/repository/biz/aQute/bnd/biz.aQute.bndlib/2.4.1/biz.aQute.bndlib-2.4.1.jar:/var/root/.m2/repository/commons-logging/commons-logging/1.2/commons-logging-1.2.jar:/var/root/.m2/repository/junit/junit/4.11/junit-4.11.jar:/var/root/.m2/repository/org/hamcrest/hamcrest-core/1.3/hamcrest-core-1.3.jar:/var/root/.m2/repository/org/apache/felix/org.apache.felix.configadmin/1.8.12/org.apache.felix.configadmin-1.8.12.jar:/var/root/.m2/repository/org/apache/camel/camel-test/2.17.0.redhat-630283/camel-test-2.17.0.redhat-630283.jar:/var/root/.m2/repository/org/apache/camel/camel-jms/2.14.1/camel-jms-2.14.1.jar:/var/root/.m2/repository/org/springframework/spring-jms/3.2.18.RELEASE/spring-jms-3.2.18.RELEASE.jar:/var/root/.m2/repository/org/springframework/spring-context/3.2.18.RELEASE/spring-context-3.2.18.RELEASE.jar:/var/root/.m2/repository/org/springframework/spring-tx/3.2.18.RELEASE/spring-tx-3.2.18.RELEASE.jar:/var/root/.m2/repository/org/springframework/spring-beans/3.2.18.RELEASE/spring-beans-3.2.18.RELEASE.jar:/var/root/.m2/repository/org/apache/camel/camel-jetty9/2.17.0.redhat-630310/camel-jetty9-2.17.0.redhat-630310.jar:/var/root/.m2/repository/org/apache/camel/camel-http-common/2.17.0.redhat-630310/camel-http-common-2.17.0.redhat-630310.jar:/var/root/.m2/repository/javax/servlet/javax.servlet-api/3.1.0.redhat-1/javax.servlet-api-3.1.0.redhat-1.jar:/var/root/.m2/repository/org/eclipse/jetty/jetty-server/9.2.21.v20170120/jetty-server-9.2.21.v20170120.jar:/var/root/.m2/repository/org/eclipse/jetty/jetty-http/9.2.21.v20170120/jetty-http-9.2.21.v20170120.jar:/var/root/.m2/repository/org/eclipse/jetty/jetty-io/9.2.21.v20170120/jetty-io-9.2.21.v20170120.jar:/var/root/.m2/repository/org/eclipse/jetty/jetty-servlet/9.2.21.v20170120/jetty-servlet-9.2.21.v20170120.jar:/var/root/.m2/repository/org/eclipse/jetty/jetty-security/9.2.21.v20170120/jetty-security-9.2.21.v20170120.jar:/var/root/.m2/repository/org/eclipse/jetty/jetty-servlets/9.2.21.v20170120/jetty-servlets-9.2.21.v20170120.jar:/var/root/.m2/repository/org/eclipse/jetty/jetty-continuation/9.2.21.v20170120/jetty-continuation-9.2.21.v20170120.jar:/var/root/.m2/repository/org/eclipse/jetty/jetty-util/9.2.21.v20170120/jetty-util-9.2.21.v20170120.jar:/var/root/.m2/repository/org/eclipse/jetty/jetty-client/9.2.21.v20170120/jetty-client-9.2.21.v20170120.jar:/var/root/.m2/repository/org/eclipse/jetty/jetty-jmx/9.2.21.v20170120/jetty-jmx-9.2.21.v20170120.jar:/var/root/.m2/repository/org/apache/camel/camel-jetty-common/2.17.0.redhat-630310/camel-jetty-common-2.17.0.redhat-630310.jar:/var/root/.m2/repository/org/slf4j/slf4j-api/1.7.7.redhat-2/slf4j-api-1.7.7.redhat-2.jar:/var/root/.m2/repository/org/slf4j/slf4j-log4j12/1.7.7.redhat-2/slf4j-log4j12-1.7.7.redhat-2.jar:/var/root/.m2/repository/log4j/log4j/1.2.17.redhat-1/log4j-1.2.17.redhat-1.jar:/var/root/.m2/repository/org/apache/activemq/activemq-all/5.13.2/activemq-all-5.13.2.jar:/var/root/.m2/repository/org/apache/activemq/activemq-camel/5.11.0.redhat-630254/activemq-camel-5.11.0.redhat-630254.jar:/var/root/.m2/repository/org/apache/activemq/activemq-spring/5.11.0.redhat-630310/activemq-spring-5.11.0.redhat-630310.jar:/var/root/.m2/repository/org/apache/xbean/xbean-spring/3.18/xbean-spring-3.18.jar:/var/root/.m2/repository/org/apache/activemq/activemq-broker/5.10.1/activemq-broker-5.10.1.jar:/var/root/.m2/repository/org/apache/activemq/activemq-openwire-legacy/5.10.1/activemq-openwire-legacy-5.10.1.jar:/var/root/.m2/repository/org/apache/activemq/activemq-client/5.10.1/activemq-client-5.10.1.jar:/var/root/.m2/repository/org/apache/geronimo/specs/geronimo-jms_1.1_spec/1.1.1/geronimo-jms_1.1_spec-1.1.1.jar:/var/root/.m2/repository/org/fusesource/hawtbuf/hawtbuf/1.11.0.redhat-1/hawtbuf-1.11.0.redhat-1.jar:/var/root/.m2/repository/org/apache/geronimo/specs/geronimo-j2ee-management_1.1_spec/1.0.1/geronimo-j2ee-management_1.1_spec-1.0.1.jar:/var/root/.m2/repository/org/apache/activemq/activemq-pool/5.10.1/activemq-pool-5.10.1.jar:/var/root/.m2/repository/org/apache/activemq/activemq-jms-pool/5.11.0.redhat-630310/activemq-jms-pool-5.11.0.redhat-630310.jar:/var/root/.m2/repository/org/apache/geronimo/specs/geronimo-jta_1.0.1B_spec/1.0.1/geronimo-jta_1.0.1B_spec-1.0.1.jar:/var/root/.m2/repository/commons-pool/commons-pool/1.6.0.redhat-9/commons-pool-1.6.0.redhat-9.jar:/var/root/.m2/repository/org/osgi/org.osgi.service.blueprint/1.0.2/org.osgi.service.blueprint-1.0.2.jar:"/>
    <property name="java.vm.vendor" value="Oracle Corporation"/>
    <property name="sun.arch.data.model" value="64"/>
    <property name="java.vendor.url" value="http://java.oracle.com/"/>
    <property name="user.timezone" value=""/>
    <property name="user.country.format" value="NO"/>
    <property name="java.vm.specification.version" value="1.8"/>
    <property name="os.name" value="Mac OS X"/>
    <property name="user.country" value="US"/>
    <property name="sun.java.launcher" value="SUN_STANDARD"/>
    <property name="sun.boot.library.path" value="/Library/Java/JavaVirtualMachines/jdk1.8.0_144.jdk/Contents/Home/jre/lib"/>
    <property name="sun.java.command" value="/Users/vsxxsep/Projects/FuseGW/CamelsGateway/target/surefire/surefirebooter6710463103878793189.jar /Users/vsxxsep/Projects/FuseGW/CamelsGateway/target/surefire 2018-01-18T16-10-00_385-jvmRun1 surefire6590231816749936395tmp surefire_06744631572227815460tmp"/>
    <property name="http.nonProxyHosts" value="local|*.local|169.254/16|*.169.254/16"/>
    <property name="surefire.test.class.path" value="/Users/vsxxsep/Projects/FuseGW/CamelsGateway/target/test-classes:/Users/vsxxsep/Projects/FuseGW/CamelsGateway/target/classes:/var/root/.m2/repository/org/ow2/asm/asm-all/5.0.4.redhat-18/asm-all-5.0.4.redhat-18.jar:/var/root/.m2/repository/org/apache/camel/camel-core/2.17.0.redhat-630310/camel-core-2.17.0.redhat-630310.jar:/var/root/.m2/repository/com/sun/xml/bind/jaxb-core/2.2.11/jaxb-core-2.2.11.jar:/var/root/.m2/repository/com/sun/xml/bind/jaxb-impl/2.2.11.redhat-2/jaxb-impl-2.2.11.redhat-2.jar:/var/root/.m2/repository/org/apache/camel/camel-blueprint/2.17.0.redhat-630283/camel-blueprint-2.17.0.redhat-630283.jar:/var/root/.m2/repository/org/apache/camel/camel-core-xml/2.17.0.redhat-630310/camel-core-xml-2.17.0.redhat-630310.jar:/var/root/.m2/repository/org/apache/camel/camel-core-osgi/2.17.0.redhat-630310/camel-core-osgi-2.17.0.redhat-630310.jar:/var/root/.m2/repository/org/apache/camel/camel-test-spring/2.17.0.redhat-630310/camel-test-spring-2.17.0.redhat-630310.jar:/var/root/.m2/repository/org/apache/camel/camel-spring/2.17.0.redhat-630310/camel-spring-2.17.0.redhat-630310.jar:/var/root/.m2/repository/org/springframework/spring-core/3.2.18.RELEASE/spring-core-3.2.18.RELEASE.jar:/var/root/.m2/repository/org/springframework/spring-aop/3.2.18.RELEASE/spring-aop-3.2.18.RELEASE.jar:/var/root/.m2/repository/aopalliance/aopalliance/1.0/aopalliance-1.0.jar:/var/root/.m2/repository/org/springframework/spring-expression/3.2.18.RELEASE/spring-expression-3.2.18.RELEASE.jar:/var/root/.m2/repository/org/springframework/spring-test/3.2.18.RELEASE/spring-test-3.2.18.RELEASE.jar:/var/root/.m2/repository/org/apache/camel/camel-test-blueprint/2.17.0.redhat-630310/camel-test-blueprint-2.17.0.redhat-630310.jar:/var/root/.m2/repository/org/apache/camel/camel-core/2.17.0.redhat-630310/camel-core-2.17.0.redhat-630310-tests.jar:/var/root/.m2/repository/org/apache/aries/proxy/org.apache.aries.proxy.api/1.0.1/org.apache.aries.proxy.api-1.0.1.jar:/var/root/.m2/repository/org/apache/aries/proxy/org.apache.aries.proxy.impl/1.0.4/org.apache.aries.proxy.impl-1.0.4.jar:/var/root/.m2/repository/org/apache/aries/blueprint/org.apache.aries.blueprint.api/1.0.1/org.apache.aries.blueprint.api-1.0.1.jar:/var/root/.m2/repository/org/apache/aries/blueprint/org.apache.aries.blueprint.core/1.8.0/org.apache.aries.blueprint.core-1.8.0.jar:/var/root/.m2/repository/org/apache/aries/quiesce/org.apache.aries.quiesce.api/1.0.0/org.apache.aries.quiesce.api-1.0.0.jar:/var/root/.m2/repository/org/apache/aries/blueprint/org.apache.aries.blueprint.cm/1.0.6/org.apache.aries.blueprint.cm-1.0.6.jar:/var/root/.m2/repository/org/apache/aries/org.apache.aries.util/1.1.3/org.apache.aries.util-1.1.3.jar:/var/root/.m2/repository/org/apache/felix/org.apache.felix.connect/0.1.0/org.apache.felix.connect-0.1.0.jar:/var/root/.m2/repository/org/ops4j/pax/swissbox/pax-swissbox-tinybundles/1.3.2/pax-swissbox-tinybundles-1.3.2.jar:/var/root/.m2/repository/org/ops4j/base/ops4j-base-lang/1.5.0/ops4j-base-lang-1.5.0.jar:/var/root/.m2/repository/org/ops4j/base/ops4j-base-io/1.5.0/ops4j-base-io-1.5.0.jar:/var/root/.m2/repository/org/ops4j/base/ops4j-base-monitors/1.5.0/ops4j-base-monitors-1.5.0.jar:/var/root/.m2/repository/org/ops4j/base/ops4j-base-store/1.5.0/ops4j-base-store-1.5.0.jar:/var/root/.m2/repository/org/ops4j/pax/swissbox/pax-swissbox-bnd/1.8.2/pax-swissbox-bnd-1.8.2.jar:/var/root/.m2/repository/biz/aQute/bnd/bndlib/2.4.0/bndlib-2.4.0.jar:/var/root/.m2/repository/biz/aQute/bnd/biz.aQute.bndlib/2.4.1/biz.aQute.bndlib-2.4.1.jar:/var/root/.m2/repository/commons-logging/commons-logging/1.2/commons-logging-1.2.jar:/var/root/.m2/repository/junit/junit/4.11/junit-4.11.jar:/var/root/.m2/repository/org/hamcrest/hamcrest-core/1.3/hamcrest-core-1.3.jar:/var/root/.m2/repository/org/apache/felix/org.apache.felix.configadmin/1.8.12/org.apache.felix.configadmin-1.8.12.jar:/var/root/.m2/repository/org/apache/camel/camel-test/2.17.0.redhat-630283/camel-test-2.17.0.redhat-630283.jar:/var/root/.m2/repository/org/apache/camel/camel-jms/2.14.1/camel-jms-2.14.1.jar:/var/root/.m2/repository/org/springframework/spring-jms/3.2.18.RELEASE/spring-jms-3.2.18.RELEASE.jar:/var/root/.m2/repository/org/springframework/spring-context/3.2.18.RELEASE/spring-context-3.2.18.RELEASE.jar:/var/root/.m2/repository/org/springframework/spring-tx/3.2.18.RELEASE/spring-tx-3.2.18.RELEASE.jar:/var/root/.m2/repository/org/springframework/spring-beans/3.2.18.RELEASE/spring-beans-3.2.18.RELEASE.jar:/var/root/.m2/repository/org/apache/camel/camel-jetty9/2.17.0.redhat-630310/camel-jetty9-2.17.0.redhat-630310.jar:/var/root/.m2/repository/org/apache/camel/camel-http-common/2.17.0.redhat-630310/camel-http-common-2.17.0.redhat-630310.jar:/var/root/.m2/repository/javax/servlet/javax.servlet-api/3.1.0.redhat-1/javax.servlet-api-3.1.0.redhat-1.jar:/var/root/.m2/repository/org/eclipse/jetty/jetty-server/9.2.21.v20170120/jetty-server-9.2.21.v20170120.jar:/var/root/.m2/repository/org/eclipse/jetty/jetty-http/9.2.21.v20170120/jetty-http-9.2.21.v20170120.jar:/var/root/.m2/repository/org/eclipse/jetty/jetty-io/9.2.21.v20170120/jetty-io-9.2.21.v20170120.jar:/var/root/.m2/repository/org/eclipse/jetty/jetty-servlet/9.2.21.v20170120/jetty-servlet-9.2.21.v20170120.jar:/var/root/.m2/repository/org/eclipse/jetty/jetty-security/9.2.21.v20170120/jetty-security-9.2.21.v20170120.jar:/var/root/.m2/repository/org/eclipse/jetty/jetty-servlets/9.2.21.v20170120/jetty-servlets-9.2.21.v20170120.jar:/var/root/.m2/repository/org/eclipse/jetty/jetty-continuation/9.2.21.v20170120/jetty-continuation-9.2.21.v20170120.jar:/var/root/.m2/repository/org/eclipse/jetty/jetty-util/9.2.21.v20170120/jetty-util-9.2.21.v20170120.jar:/var/root/.m2/repository/org/eclipse/jetty/jetty-client/9.2.21.v20170120/jetty-client-9.2.21.v20170120.jar:/var/root/.m2/repository/org/eclipse/jetty/jetty-jmx/9.2.21.v20170120/jetty-jmx-9.2.21.v20170120.jar:/var/root/.m2/repository/org/apache/camel/camel-jetty-common/2.17.0.redhat-630310/camel-jetty-common-2.17.0.redhat-630310.jar:/var/root/.m2/repository/org/slf4j/slf4j-api/1.7.7.redhat-2/slf4j-api-1.7.7.redhat-2.jar:/var/root/.m2/repository/org/slf4j/slf4j-log4j12/1.7.7.redhat-2/slf4j-log4j12-1.7.7.redhat-2.jar:/var/root/.m2/repository/log4j/log4j/1.2.17.redhat-1/log4j-1.2.17.redhat-1.jar:/var/root/.m2/repository/org/apache/activemq/activemq-all/5.13.2/activemq-all-5.13.2.jar:/var/root/.m2/repository/org/apache/activemq/activemq-camel/5.11.0.redhat-630254/activemq-camel-5.11.0.redhat-630254.jar:/var/root/.m2/repository/org/apache/activemq/activemq-spring/5.11.0.redhat-630310/activemq-spring-5.11.0.redhat-630310.jar:/var/root/.m2/repository/org/apache/xbean/xbean-spring/3.18/xbean-spring-3.18.jar:/var/root/.m2/repository/org/apache/activemq/activemq-broker/5.10.1/activemq-broker-5.10.1.jar:/var/root/.m2/repository/org/apache/activemq/activemq-openwire-legacy/5.10.1/activemq-openwire-legacy-5.10.1.jar:/var/root/.m2/repository/org/apache/activemq/activemq-client/5.10.1/activemq-client-5.10.1.jar:/var/root/.m2/repository/org/apache/geronimo/specs/geronimo-jms_1.1_spec/1.1.1/geronimo-jms_1.1_spec-1.1.1.jar:/var/root/.m2/repository/org/fusesource/hawtbuf/hawtbuf/1.11.0.redhat-1/hawtbuf-1.11.0.redhat-1.jar:/var/root/.m2/repository/org/apache/geronimo/specs/geronimo-j2ee-management_1.1_spec/1.0.1/geronimo-j2ee-management_1.1_spec-1.0.1.jar:/var/root/.m2/repository/org/apache/activemq/activemq-pool/5.10.1/activemq-pool-5.10.1.jar:/var/root/.m2/repository/org/apache/activemq/activemq-jms-pool/5.11.0.redhat-630310/activemq-jms-pool-5.11.0.redhat-630310.jar:/var/root/.m2/repository/org/apache/geronimo/specs/geronimo-jta_1.0.1B_spec/1.0.1/geronimo-jta_1.0.1B_spec-1.0.1.jar:/var/root/.m2/repository/commons-pool/commons-pool/1.6.0.redhat-9/commons-pool-1.6.0.redhat-9.jar:/var/root/.m2/repository/org/osgi/org.osgi.service.blueprint/1.0.2/org.osgi.service.blueprint-1.0.2.jar:"/>
    <property name="sun.cpu.endian" value="little"/>
    <property name="user.home" value="/var/root"/>
    <property name="user.language" value="en"/>
    <property name="java.specification.vendor" value="Oracle Corporation"/>
    <property name="java.home" value="/Library/Java/JavaVirtualMachines/jdk1.8.0_144.jdk/Contents/Home/jre"/>
    <property name="basedir" value="/Users/vsxxsep/Projects/FuseGW/CamelsGateway"/>
    <property name="file.separator" value="/"/>
    <property name="line.separator" value="&#10;"/>
    <property name="java.vm.specification.vendor" value="Oracle Corporation"/>
    <property name="java.specification.name" value="Java Platform API Specification"/>
    <property name="java.awt.graphicsenv" value="sun.awt.CGraphicsEnvironment"/>
    <property name="surefire.real.class.path" value="/Users/vsxxsep/Projects/FuseGW/CamelsGateway/target/surefire/surefirebooter6710463103878793189.jar"/>
    <property name="sun.boot.class.path" value="/Library/Java/JavaVirtualMachines/jdk1.8.0_144.jdk/Contents/Home/jre/lib/resources.jar:/Library/Java/JavaVirtualMachines/jdk1.8.0_144.jdk/Contents/Home/jre/lib/rt.jar:/Library/Java/JavaVirtualMachines/jdk1.8.0_144.jdk/Contents/Home/jre/lib/sunrsasign.jar:/Library/Java/JavaVirtualMachines/jdk1.8.0_144.jdk/Contents/Home/jre/lib/jsse.jar:/Library/Java/JavaVirtualMachines/jdk1.8.0_144.jdk/Contents/Home/jre/lib/jce.jar:/Library/Java/JavaVirtualMachines/jdk1.8.0_144.jdk/Contents/Home/jre/lib/charsets.jar:/Library/Java/JavaVirtualMachines/jdk1.8.0_144.jdk/Contents/Home/jre/lib/jfr.jar:/Library/Java/JavaVirtualMachines/jdk1.8.0_144.jdk/Contents/Home/jre/classes"/>
    <property name="sun.management.compiler" value="HotSpot 64-Bit Tiered Compilers"/>
    <property name="ftp.nonProxyHosts" value="local|*.local|169.254/16|*.169.254/16"/>
    <property name="java.runtime.version" value="1.8.0_144-b01"/>
    <property name="user.name" value="root"/>
    <property name="path.separator" value=":"/>
    <property name="os.version" value="10.13.1"/>
    <property name="java.endorsed.dirs" value="/Library/Java/JavaVirtualMachines/jdk1.8.0_144.jdk/Contents/Home/jre/lib/endorsed"/>
    <property name="java.runtime.name" value="Java(TM) SE Runtime Environment"/>
    <property name="file.encoding" value="UTF-8"/>
    <property name="java.vm.name" value="Java HotSpot(TM) 64-Bit Server VM"/>
    <property name="localRepository" value="/var/root/.m2/repository"/>
    <property name="java.vendor.url.bug" value="http://bugreport.sun.com/bugreport/"/>
    <property name="java.io.tmpdir" value="/var/folders/zz/zyxvpxvq6csfxvn_n0000000000000/T/"/>
    <property name="java.version" value="1.8.0_144"/>
    <property name="user.dir" value="/Users/vsxxsep/Projects/FuseGW/CamelsGateway"/>
    <property name="os.arch" value="x86_64"/>
    <property name="java.vm.specification.name" value="Java Virtual Machine Specification"/>
    <property name="java.awt.printerjob" value="sun.lwawt.macosx.CPrinterJob"/>
    <property name="sun.os.patch.level" value="unknown"/>
    <property name="java.library.path" value="/Users/vsxxsep/Library/Java/Extensions:/Library/Java/Extensions:/Network/Library/Java/Extensions:/System/Library/Java/Extensions:/usr/lib/java:."/>
    <property name="java.vm.info" value="mixed mode"/>
    <property name="java.vendor" value="Oracle Corporation"/>
    <property name="java.vm.version" value="25.144-b01"/>
    <property name="java.ext.dirs" value="/Users/vsxxsep/Library/Java/Extensions:/Library/Java/JavaVirtualMachines/jdk1.8.0_144.jdk/Contents/Home/jre/lib/ext:/Library/Java/Extensions:/Network/Library/Java/Extensions:/System/Library/Java/Extensions:/usr/lib/java"/>
    <property name="sun.io.unicode.encoding" value="UnicodeBig"/>
    <property name="java.class.version" value="52.0"/>
    <property name="socksNonProxyHosts" value="local|*.local|169.254/16|*.169.254/16"/>
  </properties>
  <testcase name="testCamelRoute" classname="FirstPetXmlExtendedTest" time="1.784">
    <error message="Name activemq is already instanciated as null and cannot be removed." type="java.lang.RuntimeException">java.lang.RuntimeException: Name activemq is already instanciated as null and cannot be removed.
Caused by: org.osgi.service.blueprint.container.ComponentDefinitionException: Name activemq is already instanciated as null and cannot be removed.
</error>
    <system-out><![CDATA[[                          main] CamelBlueprintHelper           INFO  Using Blueprint XML file: /Users/vsxxsep/Projects/FuseGW/CamelsGateway/target/classes/OSGI-INF/blueprint/firstPet.xml
[                      Thread-0] RawBuilder                     INFO  Copy thread finished.
[                      Thread-1] RawBuilder                     INFO  Copy thread finished.
[                          main] Activator                      INFO  Camel activator starting
[                          main] Activator                      INFO  Camel activator started
[         Blueprint Extender: 1] BlueprintContainerImpl         INFO  Bundle FirstPetXmlExtendedTest/1.0.0 is waiting for namespace handlers [http://camel.apache.org/schema/blueprint]
[         Blueprint Extender: 1] BeanRecipe                     WARN  Object to be destroyed is not an instance of UnwrapperedBeanHolder, type: null
[         Blueprint Extender: 1] BeanRecipe                     WARN  Object to be destroyed is not an instance of UnwrapperedBeanHolder, type: null
[         Blueprint Extender: 1] BeanRecipe                     WARN  Object to be destroyed is not an instance of UnwrapperedBeanHolder, type: null
[         Blueprint Extender: 1] BlueprintCamelContext          INFO  Apache Camel 2.17.0.redhat-630310 (CamelContext: CamelPetContext) is shutting down
[         Blueprint Extender: 1] BlueprintCamelContext          INFO  Apache Camel 2.17.0.redhat-630310 (CamelContext: CamelPetContext) uptime 
[         Blueprint Extender: 1] BlueprintCamelContext          INFO  Apache Camel 2.17.0.redhat-630310 (CamelContext: CamelPetContext) is shutdown in 0.005 seconds
[         Blueprint Extender: 1] BlueprintContainerImpl         ERROR Unable to start blueprint container for bundle FirstPetXmlExtendedTest/1.0.0
org.osgi.service.blueprint.container.ComponentDefinitionException: Name activemq is already instanciated as null and cannot be removed.
	at org.apache.aries.blueprint.container.BlueprintRepository.removeRecipe(BlueprintRepository.java:131)
	at org.apache.aries.blueprint.container.BlueprintContainerImpl.updateUninstantiatedRecipes(BlueprintContainerImpl.java:593)
	at org.apache.aries.blueprint.container.BlueprintContainerImpl.processProcessors(BlueprintContainerImpl.java:580)
	at org.apache.aries.blueprint.container.BlueprintContainerImpl.doRun(BlueprintContainerImpl.java:396)
	at org.apache.aries.blueprint.container.BlueprintContainerImpl.run(BlueprintContainerImpl.java:277)
	at java.util.concurrent.Executors$RunnableAdapter.call(Executors.java:511)
	at java.util.concurrent.FutureTask.run(FutureTask.java:266)
	at org.apache.aries.blueprint.container.ExecutorServiceWrapper.run(ExecutorServiceWrapper.java:106)
	at org.apache.aries.blueprint.utils.threading.impl.DiscardableRunnable.run(DiscardableRunnable.java:48)
	at java.util.concurrent.Executors$RunnableAdapter.call(Executors.java:511)
	at java.util.concurrent.FutureTask.run(FutureTask.java:266)
	at java.util.concurrent.ScheduledThreadPoolExecutor$ScheduledFutureTask.access$201(ScheduledThreadPoolExecutor.java:180)
	at java.util.concurrent.ScheduledThreadPoolExecutor$ScheduledFutureTask.run(ScheduledThreadPoolExecutor.java:293)
	at java.util.concurrent.ThreadPoolExecutor.runWorker(ThreadPoolExecutor.java:1149)
	at java.util.concurrent.ThreadPoolExecutor$Worker.run(ThreadPoolExecutor.java:624)
	at java.lang.Thread.run(Thread.java:748)
[                          main] FirstPetXmlExtendedTest        INFO  ********************************************************************************
[                          main] FirstPetXmlExtendedTest        INFO  Testing done: testCamelRoute(FirstPetXmlExtendedTest)
[                          main] FirstPetXmlExtendedTest        INFO  Took: 1.779 seconds (1779 millis)
[                          main] FirstPetXmlExtendedTest        INFO  ********************************************************************************
[                          main] CamelBlueprintHelper           INFO  Deleting work directory target/bundles/1516288201125
]]></system-out>
    <system-err><![CDATA[SLF4J: Class path contains multiple SLF4J bindings.
SLF4J: Found binding in [jar:file:/var/root/.m2/repository/org/slf4j/slf4j-log4j12/1.7.7.redhat-2/slf4j-log4j12-1.7.7.redhat-2.jar!/org/slf4j/impl/StaticLoggerBinder.class]
SLF4J: Found binding in [jar:file:/var/root/.m2/repository/org/apache/activemq/activemq-all/5.13.2/activemq-all-5.13.2.jar!/org/slf4j/impl/StaticLoggerBinder.class]
SLF4J: See http://www.slf4j.org/codes.html#multiple_bindings for an explanation.
SLF4J: Actual binding is of type [org.slf4j.impl.Log4jLoggerFactory]
]]></system-err>
  </testcase>
</testsuite>