main/java/no/vps/adapters/fso/FileHandler$1.class
main/java/no/vps/adapters/config/RtmLogger.class
main/java/no/vps/adapters/http/PostHelper.class
main/java/no/vps/adapters/config/Config.class
main/java/no/vps/adapters/fso/FileHandler.class
